using System;
using System.Collections;
using UnityEngine;
using SimpleJSON;
using UnityEngine.UI;
//-------------------------------------------------------------------------
public class Main : MonoBehaviour
{
    GoogleImageDownloader       _google;
    //-------------------------------------------------------------------------
    public override void start()
    {
        _google = gameObject.AddComponent<GoogleImageDownloader>();
		string searchTerm="man walking dog";
        yield return StartCoroutine(_google.downloadSprite(searchTerm));
        Sprite sprite = _google.getSprite();
		
		// SHOW SPRITE
    }
    //-------------------------------------------------------------------------
}
